UART_SV/dump.vcd
$date
	Sat Jan 22 11:57:59 2022
$end
$version
	ModelSim Version 2020.4
$end
$timescale
	1ns
$end

$scope module top $end
$var reg 1 ! clk $end

$scope module test_uart $end
$var wire 1 " din [7] $end
$var wire 1 # din [6] $end
$var wire 1 $ din [5] $end
$var wire 1 % din [4] $end
$var wire 1 & din [3] $end
$var wire 1 ' din [2] $end
$var wire 1 ( din [1] $end
$var wire 1 ) din [0] $end
$var wire 1 * wr_en $end
$var wire 1 + clk $end
$var wire 1 , reset $end
$var wire 1 - tx_busy $end
$var wire 1 . ready $end
$var wire 1 / dout [7] $end
$var wire 1 0 dout [6] $end
$var wire 1 1 dout [5] $end
$var wire 1 2 dout [4] $end
$var wire 1 3 dout [3] $end
$var wire 1 4 dout [2] $end
$var wire 1 5 dout [1] $end
$var wire 1 6 dout [0] $end
$var wire 1 7 rx_en $end
$var wire 1 8 tx_en $end
$var wire 1 9 tx_rx $end

$scope module uart_baud $end
$var parameter 32 : RX_MAX $end
$var parameter 32 ; TX_MAX $end
$var parameter 32 < RX_WIDTH $end
$var parameter 32 = TX_WIDTH $end
$var wire 1 + clk $end
$var wire 1 7 rx_en $end
$var wire 1 8 tx_en $end
$var reg 5 > rx_acc [4:0] $end
$var reg 9 ? tx_acc [8:0] $end
$upscope $end

$scope module uart_tx $end
$var parameter 2 @ STATE_IDLE $end
$var parameter 2 A STATE_START $end
$var parameter 2 B STATE_DATA $end
$var parameter 2 C STATE_STOP $end
$var wire 1 " din [7] $end
$var wire 1 # din [6] $end
$var wire 1 $ din [5] $end
$var wire 1 % din [4] $end
$var wire 1 & din [3] $end
$var wire 1 ' din [2] $end
$var wire 1 ( din [1] $end
$var wire 1 ) din [0] $end
$var wire 1 * wr_en $end
$var wire 1 + clk $end
$var wire 1 8 clk_en $end
$var reg 1 D tx $end
$var wire 1 - tx_busy $end
$var reg 8 E data [7:0] $end
$var reg 3 F bit_pos [2:0] $end
$var reg 2 G state [1:0] $end
$upscope $end

$scope module uart_rx $end
$var parameter 2 H RX_STATE_START $end
$var parameter 2 I RX_STATE_DATA $end
$var parameter 2 J RX_STATE_STOP $end
$var wire 1 9 rx $end
$var wire 1 + clk $end
$var wire 1 7 clk_en $end
$var wire 1 , reset $end
$var reg 1 K ready $end
$var reg 8 L dout [7:0] $end
$var reg 2 M state [1:0] $end
$var reg 4 N sample [3:0] $end
$var reg 4 O bit_pos [3:0] $end
$var reg 8 P op_reg [7:0] $end
$upscope $end
$upscope $end

$scope module tb_inst $end
$upscope $end
$upscope $end
$enddefinitions $end
#0
$dumpvars
0!
b0 >
b0 ?
1D
b0 E
b0 F
b0 G
xK
bx L
b0 M
b0 N
b0 O
b0 P
b11011 :
b110110010 ;
b101 <
b1001 =
b0 @
b1 A
b10 B
b11 C
b0 H
b1 I
b10 J
17
18
19
1,
0+
x*
x)
x(
x'
x&
x%
x$
x#
x"
0-
x.
x6
x5
x4
x3
x2
x1
x0
x/
$end
#5
1!
1+
b1 >
b1 ?
0K
07
08
0.
0,
#10
0!
0+
#15
1!
1+
b10 >
b10 ?
#20
0!
0+
#25
1!
1+
b11 >
b11 ?
1*
0)
0(
0'
0&
1%
0$
1#
0"
#30
0!
0+
#35
1!
1+
b100 >
b100 ?
b1 G
b1010000 E
1-
0*
#40
0!
0+
#45
1!
1+
b101 >
b101 ?
#50
0!
0+
#55
1!
1+
b110 >
b110 ?
#60
0!
0+
#65
1!
1+
b111 >
b111 ?
#70
0!
0+
#75
1!
1+
b1000 >
b1000 ?
#80
0!
0+
#85
1!
1+
b1001 >
b1001 ?
#90
0!
0+
#95
1!
1+
b1010 >
b1010 ?
#100
0!
0+
#105
1!
1+
b1011 >
b1011 ?
#110
0!
0+
#115
1!
1+
b1100 >
b1100 ?
#120
0!
0+
#125
1!
1+
b1101 >
b1101 ?
#130
0!
0+
#135
1!
1+
b1110 >
b1110 ?
#140
0!
0+
#145
1!
1+
b1111 >
b1111 ?
#150
0!
0+
#155
1!
1+
b10000 >
b10000 ?
#160
0!
0+
#165
1!
1+
b10001 >
b10001 ?
#170
0!
0+
#175
1!
1+
b10010 >
b10010 ?
#180
0!
0+
#185
1!
1+
b10011 >
b10011 ?
#190
0!
0+
#195
1!
1+
b10100 >
b10100 ?
#200
0!
0+
#205
1!
1+
b10101 >
b10101 ?
#210
0!
0+
#215
1!
1+
b10110 >
b10110 ?
#220
0!
0+
#225
1!
1+
b10111 >
b10111 ?
#230
0!
0+
#235
1!
1+
b11000 >
b11000 ?
#240
0!
0+
#245
1!
1+
b11001 >
b11001 ?
#250
0!
0+
#255
1!
1+
b11010 >
b11010 ?
#260
0!
0+
#265
1!
1+
b11011 >
b11011 ?
#270
0!
0+
#275
1!
1+
b0 >
b11100 ?
17
#280
0!
0+
#285
1!
1+
b1 >
b11101 ?
07
#290
0!
0+
#295
1!
1+
b10 >
b11110 ?
#300
0!
0+
#305
1!
1+
b11 >
b11111 ?
#310
0!
0+
#315
1!
1+
b100 >
b100000 ?
#320
0!
0+
#325
1!
1+
b101 >
b100001 ?
#330
0!
0+
#335
1!
1+
b110 >
b100010 ?
#340
0!
0+
#345
1!
1+
b111 >
b100011 ?
#350
0!
0+
#355
1!
1+
b1000 >
b100100 ?
#360
0!
0+
#365
1!
1+
b1001 >
b100101 ?
#370
0!
0+
#375
1!
1+
b1010 >
b100110 ?
#380
0!
0+
#385
1!
1+
b1011 >
b100111 ?
#390
0!
0+
#395
1!
1+
b1100 >
b101000 ?
#400
0!
0+
#405
1!
1+
b1101 >
b101001 ?
#410
0!
0+
#415
1!
1+
b1110 >
b101010 ?
#420
0!
0+
#425
1!
1+
b1111 >
b101011 ?
#430
0!
0+
#435
1!
1+
b10000 >
b101100 ?
#440
0!
0+
#445
1!
1+
b10001 >
b101101 ?
#450
0!
0+
#455
1!
1+
b10010 >
b101110 ?
#460
0!
0+
#465
1!
1+
b10011 >
b101111 ?
#470
0!
0+
#475
1!
1+
b10100 >
b110000 ?
#480
0!
0+
#485
1!
1+
b10101 >
b110001 ?
#490
0!
0+
#495
1!
1+
b10110 >
b110010 ?
#500
0!
0+
#505
1!
1+
b10111 >
b110011 ?
#510
0!
0+
#515
1!
1+
b11000 >
b110100 ?
#520
0!
0+
#525
1!
1+
b11001 >
b110101 ?
#530
0!
0+
#535
1!
1+
b11010 >
b110110 ?
#540
0!
0+
#545
1!
1+
b11011 >
b110111 ?
#550
0!
0+
#555
1!
1+
b0 >
b111000 ?
17
#560
0!
0+
#565
1!
1+
b1 >
b111001 ?
07
#570
0!
0+
#575
1!
1+
b10 >
b111010 ?
#580
0!
0+
#585
1!
1+
b11 >
b111011 ?
#590
0!
0+
#595
1!
1+
b100 >
b111100 ?
#600
0!
0+
#605
1!
1+
b101 >
b111101 ?
#610
0!
0+
#615
1!
1+
b110 >
b111110 ?
#620
0!
0+
#625
1!
1+
b111 >
b111111 ?
#630
0!
0+
#635
1!
1+
b1000 >
b1000000 ?
#640
0!
0+
#645
1!
1+
b1001 >
b1000001 ?
#650
0!
0+
#655
1!
1+
b1010 >
b1000010 ?
#660
0!
0+
#665
1!
1+
b1011 >
b1000011 ?
#670
0!
0+
#675
1!
1+
b1100 >
b1000100 ?
#680
0!
0+
#685
1!
1+
b1101 >
b1000101 ?
#690
0!
0+
#695
1!
1+
b1110 >
b1000110 ?
#700
0!
0+
#705
1!
1+
b1111 >
b1000111 ?
#710
0!
0+
#715
1!
1+
b10000 >
b1001000 ?
#720
0!
0+
#725
1!
1+
b10001 >
b1001001 ?
#730
0!
0+
#735
1!
1+
b10010 >
b1001010 ?
#740
0!
0+
#745
1!
1+
b10011 >
b1001011 ?
#750
0!
0+
#755
1!
1+
b10100 >
b1001100 ?
#760
0!
0+
#765
1!
1+
b10101 >
b1001101 ?
#770
0!
0+
#775
1!
1+
b10110 >
b1001110 ?
#780
0!
0+
#785
1!
1+
b10111 >
b1001111 ?
#790
0!
0+
#795
1!
1+
b11000 >
b1010000 ?
#800
0!
0+
#805
1!
1+
b11001 >
b1010001 ?
#810
0!
0+
#815
1!
1+
b11010 >
b1010010 ?
#820
0!
0+
#825
1!
1+
b11011 >
b1010011 ?
#830
0!
0+
#835
1!
1+
b0 >
b1010100 ?
17
#840
0!
0+
#845
1!
1+
b1 >
b1010101 ?
07
#850
0!
0+
#855
1!
1+
b10 >
b1010110 ?
#860
0!
0+
#865
1!
1+
b11 >
b1010111 ?
#870
0!
0+
#875
1!
1+
b100 >
b1011000 ?
#880
0!
0+
#885
1!
1+
b101 >
b1011001 ?
#890
0!
0+
#895
1!
1+
b110 >
b1011010 ?
#900
0!
0+
#905
1!
1+
b111 >
b1011011 ?
#910
0!
0+
#915
1!
1+
b1000 >
b1011100 ?
#920
0!
0+
#925
1!
1+
b1001 >
b1011101 ?
#930
0!
0+
#935
1!
1+
b1010 >
b1011110 ?
#940
0!
0+
#945
1!
1+
b1011 >
b1011111 ?
#950
0!
0+
#955
1!
1+
b1100 >
b1100000 ?
#960
0!
0+
#965
1!
1+
b1101 >
b1100001 ?
#970
0!
0+
#975
1!
1+
b1110 >
b1100010 ?
#980
0!
0+
#985
1!
1+
b1111 >
b1100011 ?
#990
0!
0+
#995
1!
1+
b10000 >
b1100100 ?
#1000
0!
0+
#1005
1!
1+
b10001 >
b1100101 ?
#1010
0!
0+
#1015
1!
1+
b10010 >
b1100110 ?
#1020
0!
0+
#1025
1!
1+
b10011 >
b1100111 ?
#1030
0!
0+
#1035
1!
1+
b10100 >
b1101000 ?
#1040
0!
0+
#1045
1!
1+
b10101 >
b1101001 ?
#1050
0!
0+
#1055
1!
1+
b10110 >
b1101010 ?
#1060
0!
0+
#1065
1!
1+
b10111 >
b1101011 ?
#1070
0!
0+
#1075
1!
1+
b11000 >
b1101100 ?
#1080
0!
0+
#1085
1!
1+
b11001 >
b1101101 ?
#1090
0!
0+
#1095
1!
1+
b11010 >
b1101110 ?
#1100
0!
0+
#1105
1!
1+
b11011 >
b1101111 ?
#1110
0!
0+
#1115
1!
1+
b0 >
b1110000 ?
17
#1120
0!
0+
#1125
1!
1+
b1 >
b1110001 ?
07
#1130
0!
0+
#1135
1!
1+
b10 >
b1110010 ?
#1140
0!
0+
#1145
1!
1+
b11 >
b1110011 ?
#1150
0!
0+
#1155
1!
1+
b100 >
b1110100 ?
#1160
0!
0+
#1165
1!
1+
b101 >
b1110101 ?
#1170
0!
0+
#1175
1!
1+
b110 >
b1110110 ?
#1180
0!
0+
#1185
1!
1+
b111 >
b1110111 ?
#1190
0!
0+
#1195
1!
1+
b1000 >
b1111000 ?
#1200
0!
0+
#1205
1!
1+
b1001 >
b1111001 ?
#1210
0!
0+
#1215
1!
1+
b1010 >
b1111010 ?
#1220
0!
0+
#1225
1!
1+
b1011 >
b1111011 ?
#1230
0!
0+
#1235
1!
1+
b1100 >
b1111100 ?
#1240
0!
0+
#1245
1!
1+
b1101 >
b1111101 ?
#1250
0!
0+
#1255
1!
1+
b1110 >
b1111110 ?
#1260
0!
0+
#1265
1!
1+
b1111 >
b1111111 ?
#1270
0!
0+
#1275
1!
1+
b10000 >
b10000000 ?
#1280
0!
0+
#1285
1!
1+
b10001 >
b10000001 ?
#1290
0!
0+
#1295
1!
1+
b10010 >
b10000010 ?
#1300
0!
0+
#1305
1!
1+
b10011 >
b10000011 ?
#1310
0!
0+
#1315
1!
1+
b10100 >
b10000100 ?
#1320
0!
0+
#1325
1!
1+
b10101 >
b10000101 ?
#1330
0!
0+
#1335
1!
1+
b10110 >
b10000110 ?
#1340
0!
0+
#1345
1!
1+
b10111 >
b10000111 ?
#1350
0!
0+
#1355
1!
1+
b11000 >
b10001000 ?
#1360
0!
0+
#1365
1!
1+
b11001 >
b10001001 ?
#1370
0!
0+
#1375
1!
1+
b11010 >
b10001010 ?
#1380
0!
0+
#1385
1!
1+
b11011 >
b10001011 ?
#1390
0!
0+
#1395
1!
1+
b0 >
b10001100 ?
17
#1400
0!
0+
#1405
1!
1+
b1 >
b10001101 ?
07
#1410
0!
0+
#1415
1!
1+
b10 >
b10001110 ?
#1420
0!
0+
#1425
1!
1+
b11 >
b10001111 ?
#1430
0!
0+
#1435
1!
1+
b100 >
b10010000 ?
#1440
0!
0+
#1445
1!
1+
b101 >
b10010001 ?
#1450
0!
0+
#1455
1!
1+
b110 >
b10010010 ?
#1460
0!
0+
#1465
1!
1+
b111 >
b10010011 ?
#1470
0!
0+
#1475
1!
1+
b1000 >
b10010100 ?
#1480
0!
0+
#1485
1!
1+
b1001 >
b10010101 ?
#1490
0!
0+
#1495
1!
1+
b1010 >
b10010110 ?
#1500
0!
0+
#1505
1!
1+
b1011 >
b10010111 ?
#1510
0!
0+
#1515
1!
1+
b1100 >
b10011000 ?
#1520
0!
0+
#1525
1!
1+
b1101 >
b10011001 ?
#1530
0!
0+
#1535
1!
1+
b1110 >
b10011010 ?
#1540
0!
0+
#1545
1!
1+
b1111 >
b10011011 ?
#1550
0!
0+
#1555
1!
1+
b10000 >
b10011100 ?
#1560
0!
0+
#1565
1!
1+
b10001 >
b10011101 ?
#1570
0!
0+
#1575
1!
1+
b10010 >
b10011110 ?
#1580
0!
0+
#1585
1!
1+
b10011 >
b10011111 ?
#1590
0!
0+
#1595
1!
1+
b10100 >
b10100000 ?
#1600
0!
0+
#1605
1!
1+
b10101 >
b10100001 ?
#1610
0!
0+
#1615
1!
1+
b10110 >
b10100010 ?
#1620
0!
0+
#1625
1!
1+
b10111 >
b10100011 ?
#1630
0!
0+
#1635
1!
1+
b11000 >
b10100100 ?
#1640
0!
0+
#1645
1!
1+
b11001 >
b10100101 ?
#1650
0!
0+
#1655
1!
1+
b11010 >
b10100110 ?
#1660
0!
0+
#1665
1!
1+
b11011 >
b10100111 ?
#1670
0!
0+
#1675
1!
1+
b0 >
b10101000 ?
17
#1680
0!
0+
#1685
1!
1+
b1 >
b10101001 ?
07
#1690
0!
0+
#1695
1!
1+
b10 >
b10101010 ?
#1700
0!
0+
#1705
1!
1+
b11 >
b10101011 ?
#1710
0!
0+
#1715
1!
1+
b100 >
b10101100 ?
#1720
0!
0+
#1725
1!
1+
b101 >
b10101101 ?
#1730
0!
0+
#1735
1!
1+
b110 >
b10101110 ?
#1740
0!
0+
#1745
1!
1+
b111 >
b10101111 ?
#1750
0!
0+
#1755
1!
1+
b1000 >
b10110000 ?
#1760
0!
0+
#1765
1!
1+
b1001 >
b10110001 ?
#1770
0!
0+
#1775
1!
1+
b1010 >
b10110010 ?
#1780
0!
0+
#1785
1!
1+
b1011 >
b10110011 ?
#1790
0!
0+
#1795
1!
1+
b1100 >
b10110100 ?
#1800
0!
0+
#1805
1!
1+
b1101 >
b10110101 ?
#1810
0!
0+
#1815
1!
1+
b1110 >
b10110110 ?
#1820
0!
0+
#1825
1!
1+
b1111 >
b10110111 ?
#1830
0!
0+
#1835
1!
1+
b10000 >
b10111000 ?
#1840
0!
0+
#1845
1!
1+
b10001 >
b10111001 ?
#1850
0!
0+
#1855
1!
1+
b10010 >
b10111010 ?
#1860
0!
0+
#1865
1!
1+
b10011 >
b10111011 ?
#1870
0!
0+
#1875
1!
1+
b10100 >
b10111100 ?
#1880
0!
0+
#1885
1!
1+
b10101 >
b10111101 ?
#1890
0!
0+
#1895
1!
1+
b10110 >
b10111110 ?
#1900
0!
0+
#1905
1!
1+
b10111 >
b10111111 ?
#1910
0!
0+
#1915
1!
1+
b11000 >
b11000000 ?
#1920
0!
0+
#1925
1!
1+
b11001 >
b11000001 ?
#1930
0!
0+
#1935
1!
1+
b11010 >
b11000010 ?
#1940
0!
0+
#1945
1!
1+
b11011 >
b11000011 ?
#1950
0!
0+
#1955
1!
1+
b0 >
b11000100 ?
17
#1960
0!
0+
#1965
1!
1+
b1 >
b11000101 ?
07
#1970
0!
0+
#1975
1!
1+
b10 >
b11000110 ?
#1980
0!
0+
#1985
1!
1+
b11 >
b11000111 ?
#1990
0!
0+
#1995
1!
1+
b100 >
b11001000 ?
#2000
0!
0+
#2005
1!
1+
b101 >
b11001001 ?
#2010
0!
0+
#2015
1!
1+
b110 >
b11001010 ?
#2020
0!
0+
#2025
1!
1+
b111 >
b11001011 ?
#2030
0!
0+
#2035
1!
1+
b1000 >
b11001100 ?
#2040
0!
0+
#2045
1!
1+
b1001 >
b11001101 ?
#2050
0!
0+
#2055
1!
1+
b1010 >
b11001110 ?
#2060
0!
0+
#2065
1!
1+
b1011 >
b11001111 ?
#2070
0!
0+
#2075
1!
1+
b1100 >
b11010000 ?
#2080
0!
0+
#2085
1!
1+
b1101 >
b11010001 ?
#2090
0!
0+
#2095
1!
1+
b1110 >
b11010010 ?
#2100
0!
0+
#2105
1!
1+
b1111 >
b11010011 ?
#2110
0!
0+
#2115
1!
1+
b10000 >
b11010100 ?
#2120
0!
0+
#2125
1!
1+
b10001 >
b11010101 ?
#2130
0!
0+
#2135
1!
1+
b10010 >
b11010110 ?
#2140
0!
0+
#2145
1!
1+
b10011 >
b11010111 ?
#2150
0!
0+
#2155
1!
1+
b10100 >
b11011000 ?
#2160
0!
0+
#2165
1!
1+
b10101 >
b11011001 ?
#2170
0!
0+
#2175
1!
1+
b10110 >
b11011010 ?
#2180
0!
0+
#2185
1!
1+
b10111 >
b11011011 ?
#2190
0!
0+
#2195
1!
1+
b11000 >
b11011100 ?
#2200
0!
0+
#2205
1!
1+
b11001 >
b11011101 ?
#2210
0!
0+
#2215
1!
1+
b11010 >
b11011110 ?
#2220
0!
0+
#2225
1!
1+
b11011 >
b11011111 ?
#2230
0!
0+
#2235
1!
1+
b0 >
b11100000 ?
17
#2240
0!
0+
#2245
1!
1+
b1 >
b11100001 ?
07
#2250
0!
0+
#2255
1!
1+
b10 >
b11100010 ?
#2260
0!
0+
#2265
1!
1+
b11 >
b11100011 ?
#2270
0!
0+
#2275
1!
1+
b100 >
b11100100 ?
#2280
0!
0+
#2285
1!
1+
b101 >
b11100101 ?
#2290
0!
0+
#2295
1!
1+
b110 >
b11100110 ?
#2300
0!
0+
#2305
1!
1+
b111 >
b11100111 ?
#2310
0!
0+
#2315
1!
1+
b1000 >
b11101000 ?
#2320
0!
0+
#2325
1!
1+
b1001 >
b11101001 ?
#2330
0!
0+
#2335
1!
1+
b1010 >
b11101010 ?
#2340
0!
0+
#2345
1!
1+
b1011 >
b11101011 ?
#2350
0!
0+
#2355
1!
1+
b1100 >
b11101100 ?
#2360
0!
0+
#2365
1!
1+
b1101 >
b11101101 ?
#2370
0!
0+
#2375
1!
1+
b1110 >
b11101110 ?
#2380
0!
0+
#2385
1!
1+
b1111 >
b11101111 ?
#2390
0!
0+
#2395
1!
1+
b10000 >
b11110000 ?
#2400
0!
0+
#2405
1!
1+
b10001 >
b11110001 ?
#2410
0!
0+
#2415
1!
1+
b10010 >
b11110010 ?
#2420
0!
0+
#2425
1!
1+
b10011 >
b11110011 ?
#2430
0!
0+
#2435
1!
1+
b10100 >
b11110100 ?
#2440
0!
0+
#2445
1!
1+
b10101 >
b11110101 ?
#2450
0!
0+
#2455
1!
1+
b10110 >
b11110110 ?
#2460
0!
0+
#2465
1!
1+
b10111 >
b11110111 ?
#2470
0!
0+
#2475
1!
1+
b11000 >
b11111000 ?
#2480
0!
0+
#2485
1!
1+
b11001 >
b11111001 ?
#2490
0!
0+
#2495
1!
1+
b11010 >
b11111010 ?
#2500
0!
0+
#2505
1!
1+
b11011 >
b11111011 ?
#2510
0!
0+
#2515
1!
1+
b0 >
b11111100 ?
17
#2520
0!
0+
#2525
1!
1+
b1 >
b11111101 ?
07
#2530
0!
0+
#2535
1!
1+
b10 >
b11111110 ?
#2540
0!
0+
#2545
1!
1+
b11 >
b11111111 ?
#2550
0!
0+
#2555
1!
1+
b100 >
b100000000 ?
#2560
0!
0+
#2565
1!
1+
b101 >
b100000001 ?
#2570
0!
0+
#2575
1!
1+
b110 >
b100000010 ?
#2580
0!
0+
#2585
1!
1+
b111 >
b100000011 ?
#2590
0!
0+
#2595
1!
1+
b1000 >
b100000100 ?
#2600
0!
0+
#2605
1!
1+
b1001 >
b100000101 ?
#2610
0!
0+
#2615
1!
1+
b1010 >
b100000110 ?
#2620
0!
0+
#2625
1!
1+
b1011 >
b100000111 ?
#2630
0!
0+
#2635
1!
1+
b1100 >
b100001000 ?
#2640
0!
0+
#2645
1!
1+
b1101 >
b100001001 ?
#2650
0!
0+
#2655
1!
1+
b1110 >
b100001010 ?
#2660
0!
0+
#2665
1!
1+
b1111 >
b100001011 ?
#2670
0!
0+
#2675
1!
1+
b10000 >
b100001100 ?
#2680
0!
0+
#2685
1!
1+
b10001 >
b100001101 ?
#2690
0!
0+
#2695
1!
1+
b10010 >
b100001110 ?
#2700
0!
0+
#2705
1!
1+
b10011 >
b100001111 ?
#2710
0!
0+
#2715
1!
1+
b10100 >
b100010000 ?
#2720
0!
0+
#2725
1!
1+
b10101 >
b100010001 ?
#2730
0!
0+
#2735
1!
1+
b10110 >
b100010010 ?
#2740
0!
0+
#2745
1!
1+
b10111 >
b100010011 ?
#2750
0!
0+
#2755
1!
1+
b11000 >
b100010100 ?
#2760
0!
0+
#2765
1!
1+
b11001 >
b100010101 ?
#2770
0!
0+
#2775
1!
1+
b11010 >
b100010110 ?
#2780
0!
0+
#2785
1!
1+
b11011 >
b100010111 ?
#2790
0!
0+
#2795
1!
1+
b0 >
b100011000 ?
17
#2800
0!
0+
#2805
1!
1+
b1 >
b100011001 ?
07
#2810
0!
0+
#2815
1!
1+
b10 >
b100011010 ?
#2820
0!
0+
#2825
1!
1+
b11 >
b100011011 ?
#2830
0!
0+
#2835
1!
1+
b100 >
b100011100 ?
#2840
0!
0+
#2845
1!
1+
b101 >
b100011101 ?
#2850
0!
0+
#2855
1!
1+
b110 >
b100011110 ?
#2860
0!
0+
#2865
1!
1+
b111 >
b100011111 ?
#2870
0!
0+
#2875
1!
1+
b1000 >
b100100000 ?
#2880
0!
0+
#2885
1!
1+
b1001 >
b100100001 ?
#2890
0!
0+
#2895
1!
1+
b1010 >
b100100010 ?
#2900
0!
0+
#2905
1!
1+
b1011 >
b100100011 ?
#2910
0!
0+
#2915
1!
1+
b1100 >
b100100100 ?
#2920
0!
0+
#2925
1!
1+
b1101 >
b100100101 ?
#2930
0!
0+
#2935
1!
1+
b1110 >
b100100110 ?
#2940
0!
0+
#2945
1!
1+
b1111 >
b100100111 ?
#2950
0!
0+
#2955
1!
1+
b10000 >
b100101000 ?
#2960
0!
0+
#2965
1!
1+
b10001 >
b100101001 ?
#2970
0!
0+
#2975
1!
1+
b10010 >
b100101010 ?
#2980
0!
0+
#2985
1!
1+
b10011 >
b100101011 ?
#2990
0!
0+
#2995
1!
1+
b10100 >
b100101100 ?
#3000
0!
0+
#3005
1!
1+
b10101 >
b100101101 ?
#3010
0!
0+
#3015
1!
1+
b10110 >
b100101110 ?
#3020
0!
0+
#3025
1!
1+
b10111 >
b100101111 ?
#3030
0!
0+
#3035
1!
1+
b11000 >
b100110000 ?
#3040
0!
0+
#3045
1!
1+
b11001 >
b100110001 ?
#3050
0!
0+
#3055
1!
1+
b11010 >
b100110010 ?
#3060
0!
0+
#3065
1!
1+
b11011 >
b100110011 ?
#3070
0!
0+
#3075
1!
1+
b0 >
b100110100 ?
17
#3080
0!
0+
#3085
1!
1+
b1 >
b100110101 ?
07
#3090
0!
0+
#3095
1!
1+
b10 >
b100110110 ?
#3100
0!
0+
#3105
1!
1+
b11 >
b100110111 ?
#3110
0!
0+
#3115
1!
1+
b100 >
b100111000 ?
#3120
0!
0+
#3125
1!
1+
b101 >
b100111001 ?
#3130
0!
0+
#3135
1!
1+
b110 >
b100111010 ?
#3140
0!
0+
#3145
1!
1+
b111 >
b100111011 ?
#3150
0!
0+
#3155
1!
1+
b1000 >
b100111100 ?
#3160
0!
0+
#3165
1!
1+
b1001 >
b100111101 ?
#3170
0!
0+
#3175
1!
1+
b1010 >
b100111110 ?
#3180
0!
0+
#3185
1!
1+
b1011 >
b100111111 ?
#3190
0!
0+
#3195
1!
1+
b1100 >
b101000000 ?
#3200
0!
0+
#3205
1!
1+
b1101 >
b101000001 ?
#3210
0!
0+
#3215
1!
1+
b1110 >
b101000010 ?
#3220
0!
0+
#3225
1!
1+
b1111 >
b101000011 ?
#3230
0!
0+
#3235
1!
1+
b10000 >
b101000100 ?
#3240
0!
0+
#3245
1!
1+
b10001 >
b101000101 ?
#3250
0!
0+
#3255
1!
1+
b10010 >
b101000110 ?
#3260
0!
0+
#3265
1!
1+
b10011 >
b101000111 ?
#3270
0!
0+
#3275
1!
1+
b10100 >
b101001000 ?
#3280
0!
0+
#3285
1!
1+
b10101 >
b101001001 ?
#3290
0!
0+
#3295
1!
1+
b10110 >
b101001010 ?
#3300
0!
0+
#3305
1!
1+
b10111 >
b101001011 ?
#3310
0!
0+
#3315
1!
1+
b11000 >
b101001100 ?
#3320
0!
0+
#3325
1!
1+
b11001 >
b101001101 ?
#3330
0!
0+
#3335
1!
1+
b11010 >
b101001110 ?
#3340
0!
0+
#3345
1!
1+
b11011 >
b101001111 ?
#3350
0!
0+
#3355
1!
1+
b0 >
b101010000 ?
17
#3360
0!
0+
#3365
1!
1+
b1 >
b101010001 ?
07
#3370
0!
0+
#3375
1!
1+
b10 >
b101010010 ?
#3380
0!
0+
#3385
1!
1+
b11 >
b101010011 ?
#3390
0!
0+
#3395
1!
1+
b100 >
b101010100 ?
#3400
0!
0+
#3405
1!
1+
b101 >
b101010101 ?
#3410
0!
0+
#3415
1!
1+
b110 >
b101010110 ?
#3420
0!
0+
#3425
1!
1+
b111 >
b101010111 ?
#3430
0!
0+
#3435
1!
1+
b1000 >
b101011000 ?
#3440
0!
0+
#3445
1!
1+
b1001 >
b101011001 ?
#3450
0!
0+
#3455
1!
1+
b1010 >
b101011010 ?
#3460
0!
0+
#3465
1!
1+
b1011 >
b101011011 ?
#3470
0!
0+
#3475
1!
1+
b1100 >
b101011100 ?
#3480
0!
0+
#3485
1!
1+
b1101 >
b101011101 ?
#3490
0!
0+
#3495
1!
1+
b1110 >
b101011110 ?
#3500
0!
0+
#3505
1!
1+
b1111 >
b101011111 ?
#3510
0!
0+
#3515
1!
1+
b10000 >
b101100000 ?
#3520
0!
0+
#3525
1!
1+
b10001 >
b101100001 ?
#3530
0!
0+
#3535
1!
1+
b10010 >
b101100010 ?
#3540
0!
0+
#3545
1!
1+
b10011 >
b101100011 ?
#3550
0!
0+
#3555
1!
1+
b10100 >
b101100100 ?
#3560
0!
0+
#3565
1!
1+
b10101 >
b101100101 ?
#3570
0!
0+
#3575
1!
1+
b10110 >
b101100110 ?
#3580
0!
0+
#3585
1!
1+
b10111 >
b101100111 ?
#3590
0!
0+
#3595
1!
1+
b11000 >
b101101000 ?
#3600
0!
0+
#3605
1!
1+
b11001 >
b101101001 ?
#3610
0!
0+
#3615
1!
1+
b11010 >
b101101010 ?
#3620
0!
0+
#3625
1!
1+
b11011 >
b101101011 ?
#3630
0!
0+
#3635
1!
1+
b0 >
b101101100 ?
17
#3640
0!
0+
#3645
1!
1+
b1 >
b101101101 ?
07
#3650
0!
0+
#3655
1!
1+
b10 >
b101101110 ?
#3660
0!
0+
#3665
1!
1+
b11 >
b101101111 ?
#3670
0!
0+
#3675
1!
1+
b100 >
b101110000 ?
#3680
0!
0+
#3685
1!
1+
b101 >
b101110001 ?
#3690
0!
0+
#3695
1!
1+
b110 >
b101110010 ?
#3700
0!
0+
#3705
1!
1+
b111 >
b101110011 ?
#3710
0!
0+
#3715
1!
1+
b1000 >
b101110100 ?
#3720
0!
0+
#3725
1!
1+
b1001 >
b101110101 ?
#3730
0!
0+
#3735
1!
1+
b1010 >
b101110110 ?
#3740
0!
0+
#3745
1!
1+
b1011 >
b101110111 ?
#3750
0!
0+
#3755
1!
1+
b1100 >
b101111000 ?
#3760
0!
0+
#3765
1!
1+
b1101 >
b101111001 ?
#3770
0!
0+
#3775
1!
1+
b1110 >
b101111010 ?
#3780
0!
0+
#3785
1!
1+
b1111 >
b101111011 ?
#3790
0!
0+
#3795
1!
1+
b10000 >
b101111100 ?
#3800
0!
0+
#3805
1!
1+
b10001 >
b101111101 ?
#3810
0!
0+
#3815
1!
1+
b10010 >
b101111110 ?
#3820
0!
0+
#3825
1!
1+
b10011 >
b101111111 ?
#3830
0!
0+
#3835
1!
1+
b10100 >
b110000000 ?
#3840
0!
0+
#3845
1!
1+
b10101 >
b110000001 ?
#3850
0!
0+
#3855
1!
1+
b10110 >
b110000010 ?
#3860
0!
0+
#3865
1!
1+
b10111 >
b110000011 ?
#3870
0!
0+
#3875
1!
1+
b11000 >
b110000100 ?
#3880
0!
0+
#3885
1!
1+
b11001 >
b110000101 ?
#3890
0!
0+
#3895
1!
1+
b11010 >
b110000110 ?
#3900
0!
0+
#3905
1!
1+
b11011 >
b110000111 ?
#3910
0!
0+
#3915
1!
1+
b0 >
b110001000 ?
17
#3920
0!
0+
#3925
1!
1+
b1 >
b110001001 ?
07
#3930
0!
0+
#3935
1!
1+
b10 >
b110001010 ?
#3940
0!
0+
#3945
1!
1+
b11 >
b110001011 ?
#3950
0!
0+
#3955
1!
1+
b100 >
b110001100 ?
#3960
0!
0+
#3965
1!
1+
b101 >
b110001101 ?
#3970
0!
0+
#3975
1!
1+
b110 >
b110001110 ?
#3980
0!
0+
#3985
1!
1+
b111 >
b110001111 ?
#3990
0!
0+
#3995
1!
1+
b1000 >
b110010000 ?
#4000
0!
0+
#4005
1!
1+
b1001 >
b110010001 ?
#4010
0!
0+
#4015
1!
1+
b1010 >
b110010010 ?
#4020
0!
0+
#4025
1!
1+
b1011 >
b110010011 ?
#4030
0!
0+
#4035
1!
1+
b1100 >
b110010100 ?
#4040
0!
0+
#4045
1!
1+
b1101 >
b110010101 ?
#4050
0!
0+
